{
  "useCustomJsCallback": {
    "id": "useCustomJsCallback",
    "value": "false"
  },
  "instanceReference": {
    "id": "instanceReference",
    "value": "164487864156920"
  },
  "defaultAutoExpandHeight": {
    "id": "defaultAutoExpandHeight",
    "value": "true"
  },
  "visibility": {
    "id": "visibility",
    "value": "visible",
    "dataType": "OBJECT"
  },
  "contAutoExpW": {
    "id": "contAutoExpW",
    "value": "false"
  },
  "defaultMaxHeight": {
    "id": "defaultMaxHeight",
    "value": "",
    "dataType": "STRING"
  },
  "defaultReferenceName": {
    "id": "defaultReferenceName",
    "value": "pxSlider",
    "dataType": "STRING"
  },
  "useDataConnector": {
    "id": "useDataConnector",
    "value": "false"
  },
  "exportParameters": {
    "id": "exportParameters",
    "value": [
      {
        "CustomField_92484318896033": [
          {
            "fieldName": "{baseName}"
          },
          {
            "requiredField": "0"
          }
        ]
      },
      {
        "CustomField_177484318902867": [
          {
            "fieldName": "{baseName}_Start"
          },
          {
            "requiredField": "0"
          }
        ]
      },
      {
        "CustomField_250484318909081": [
          {
            "fieldName": "{baseName}_End"
          },
          {
            "requiredField": "0"
          }
        ]
      }
    ],
    "dataType": "OBJECT"
  },
  "importParameters": {
    "id": "importParameters",
    "value": [
      {
        "CustomField_832484318868160": [
          {
            "fieldName": "{baseName}"
          },
          {
            "requiredField": "0"
          }
        ]
      },
      {
        "CustomField_928484318876586": [
          {
            "fieldName": "{baseName}_Start"
          },
          {
            "requiredField": "0"
          }
        ]
      },
      {
        "CustomField_16484318886900": [
          {
            "fieldName": "{baseName}_End"
          },
          {
            "requiredField": "0"
          }
        ]
      }
    ],
    "dataType": "OBJECT"
  },
  "refObjId": {
    "id": "refObjId",
    "value": "0"
  },
  "contAutoExpH": {
    "id": "contAutoExpH",
    "value": "false"
  },
  "contrUID": {
    "id": "contrUID",
    "value": "dshEmbedObject"
  },
  "mshPageId": {
    "id": "mshPageId",
    "value": "-1"
  },
  "defaultMinHeight": {
    "id": "defaultMinHeight",
    "value": "100",
    "dataType": "STRING"
  },
  "refObjType": {
    "id": "refObjType",
    "value": "264"
  },
  "defaultMaxWidth": {
    "id": "defaultMaxWidth",
    "value": "",
    "dataType": "STRING"
  },
  "$pxSliderMin": {
    "id": "$pxSliderMin",
    "value": 1,
    "dataType": "NUMBER"
  },
  "$pxSliderMax": {
    "id": "$pxSliderMax",
    "value": 100,
    "dataType": "NUMBER"
  },
  "$pxSliderDisable": {
    "id": "$pxSliderDisable",
    "value": false,
    "dataType": "BOOLEAN"
  },
  "$pxSliderStep": {
    "id": "$pxSliderStep",
    "value": 1,
    "dataType": "NUMBER"
  },
  "$pxSliderEnableRange": {
    "id": "$pxSliderEnableRange",
    "value": false,
    "dataType": "BOOLEAN"
  },
  "defaultAutoExpandWidth": {
    "id": "defaultAutoExpandWidth",
    "value": "true"
  },
  "min-height": {
    "id": "min-height",
    "value": "50",
    "dataType": "STRING"
  },
  "min-width": {
    "id": "min-width",
    "value": "200",
    "dataType": "STRING"
  },
  "owner": {
    "id": "owner",
    "value": ""
  },
  "baseName": {
    "id": "baseName",
    "value": "",
    "dataType": "STRING"
  },
  "defaultMinWidth": {
    "id": "defaultMinWidth",
    "value": "400",
    "dataType": "STRING"
  },
  "sharedLibDeps": {
    "id": "sharedLibDeps",
    "values": []
  }
}